23555000 1 ff83  3e8 0
23605000 1 ffc6 ff99 0
23655000 1 fe95 ff3f 0
23705000 1   63    9 0
23755000 1 fff8 fdae 0
23805000 1  101  4d2 0
23855000 1 ff5e fd9d 0
23905000 1  137 fe90 0
23955000 1 ff3e fe56 0
24005000 1   62  32d 0
24055000 1 fe27 febe 0
24105000 1   ca  2a4 0
24155000 1  1ab ff07 0
24205000 1   45    c 0
24255000 1 ff7b ff7c 0
24305000 1 fc8b ff97 0
24355000 1  1d5   5e 0
24405000 1   1a fff3 0
24455000 1   c7 fc22 0
24505000 1   34  2c7 0
24555000 1 ffae  112 0
24605000 1 fffd   43 0
24655000 1  176  11f 0
24705000 1 fed9 fef2 0
24755000 1   8c  12c 0
24805000 1 fee7 ff40 0
24855000 1 fe65 fd58 0
24905000 1  132 fe96 0
24955000 1 fe17   b7 0
25005000 1  40e  43e 0
25055000 1   45   62 0
25105000 1 fdd8 feb1 0
25155000 1 ffff ffc0 0
25205000 1  352 fde5 0
25255000 1 fca9  117 0
25305000 1 fde5 ff19 0
25355000 1  200  13a 0
25405000 1   15 ffd2 0
25455000 1 ffea   2d 0
25505000 1  26f ffcc 0
25555000 1 fd56   ee 0
25605000 1  188  1c9 0
25655000 1  187 ff8a 0
25705000 1 fc3a fbd8 0
25755000 1 ffab fce3 0
25805000 1  267  534 0
25855000 1 fd1b  124 0
25905000 1   df  119 0
25955000 1  30d fee6 0
26005000 1  12e ff57 0
26055000 1 fe1f fd30 0
26105000 1    0  15b 0
26155000 1 fed6  1fa 0
26205000 1 fd31 ff97 0
26255000 1 ffaa fdd7 0
26305000 1  3e9  402 0
26355000 1  168 fe94 0
26405000 1   63 fdae 0
26455000 1 fc11 fe08 0
26505000 1  236  416 0
26555000 1 ff1b  16b 0
26605000 1 ff32 fd1e 0
26655000 1   c9  142 0
26705000 1  162 fcd3 0
