// gap  = 1.0 => 0 dB
// PAM => dt_init = 3*gap, QAM => dt_init <= 1.5*gap
0000000110000000 // QAM
0000000110000000 // QAM
0000000110000000 // QAM
0000000110000000 // QAM
0000000110000000 // QAM
0000000110000000 // QAM
0000000110000000 // QAM
0000000110000000 // QAM
0000000110000000 // QAM
0000000110000000 // QAM
0000000110000000 // QAM
0000000110000000 // QAM
0000000110000000 // QAM
0000000110000000 // QAM
0000000110000000 // QAM
0000000110000000 // QAM
0000000110000000 // QAM
0000000110000000 // QAM
0000000110000000 // QAM
0000000110000000 // QAM
0000000110000000 // QAM
0000000110000000 // QAM
0000000110000000 // QAM
0000000110000000 // QAM
0000000110000000 // QAM
0000000110000000 // QAM
0000000110000000 // QAM
0000000110000000 // QAM
0000000110000000 // QAM
0000000110000000 // QAM
0000000110000000 // QAM
0000001100000000 // QAM
0000000110000000 // QAM
0000000110000000 // QAM
0000000110000000 // QAM
0000000110000000 // QAM
0000000110000000 // QAM
0000000110000000 // QAM
0000000110000000 // QAM
0000000110000000 // QAM
0000000110000000 // QAM
0000000110000000 // QAM
0000000110000000 // QAM
0000000110000000 // QAM
0000000110000000 // QAM
0000000110000000 // QAM
0000000110000000 // QAM
0000000110000000 // QAM
0000000110000000 // QAM
0000000110000000 // QAM
0000000110000000 // QAM
0000000110000000 // QAM
0000000110000000 // QAM
0000000110000000 // QAM
0000000110000000 // QAM
0000000110000000 // QAM
0000000110000000 // QAM
0000000110000000 // QAM
0000000110000000 // QAM
0000000110000000 // QAM
0000000110000000 // QAM
0000000110000000 // QAM
0000000110000000 // QAM
0000001100000000 // QAM
