FF9C
FF9C
FF9E
FFA0
FFA4
FFA8
FFAD
FFB3
FFB9
FFC1
FFC8
FFD1
FFDA
FFE3
FFEC
FFF6
0000
000A
0014
001D
0026
002F
0038
003F
0047
004D
0053
0058
005C
0060
0062
0064
0064
0064
0062
0060
005C
0058
0053
004D
0047
003F
0038
002F
0026
001D
0014
000A
0000
FFF6
FFEC
FFE3
FFDA
FFD1
FFC8
FFC1
FFB9
FFB3
FFAD
FFA8
FFA4
FFA0
FF9E
FF9C
0000
0000
0000
0000
0000
0000
0000
0000
0000
0000
0000
0000
0000
0000
0000
0000
//Proceso finalizado.
